dump.vcd
$date
	Thu Jun 18 21:04:06 2026
$end
$version
	Icarus Verilog
$end
$timescale
	1s
$end
$scope module tb $end
$var reg 1 ! clk $end
$var reg 1 " rst $end
$scope module dut $end
$var wire 1 ! clk $end
$var wire 1 " rst $end
$var wire 3 # funct3_E [2:0] $end
$var wire 32 $ WriteDataM [31:0] $end
$var wire 1 % StallF $end
$var wire 1 & StallD $end
$var wire 32 ' ResultW [31:0] $end
$var wire 2 ( ResultSrcW [1:0] $end
$var wire 2 ) ResultSrcM [1:0] $end
$var wire 2 * ResultSrcE [1:0] $end
$var wire 1 + RegWriteW $end
$var wire 1 , RegWriteM $end
$var wire 1 - RegWriteE $end
$var wire 32 . ReadDataW [31:0] $end
$var wire 5 / RS2_E [4:0] $end
$var wire 5 0 RS1_E [4:0] $end
$var wire 5 1 RD_M [4:0] $end
$var wire 5 2 RD_E [4:0] $end
$var wire 5 3 RDW [4:0] $end
$var wire 32 4 RD2_E [31:0] $end
$var wire 32 5 RD1_E [31:0] $end
$var wire 32 6 PCTargetE [31:0] $end
$var wire 1 7 PCSrcE $end
$var wire 32 8 PCPlus4W [31:0] $end
$var wire 32 9 PCPlus4M [31:0] $end
$var wire 32 : PCPlus4E [31:0] $end
$var wire 32 ; PCPlus4D [31:0] $end
$var wire 32 < PCE [31:0] $end
$var wire 32 = PCD [31:0] $end
$var wire 1 > MemWriteM $end
$var wire 1 ? MemWriteE $end
$var wire 1 @ JumpE $end
$var wire 1 A JalrE $end
$var wire 32 B InstrD [31:0] $end
$var wire 32 C Imm_Ext_E [31:0] $end
$var wire 2 D ForwardBE [1:0] $end
$var wire 2 E ForwardAE [1:0] $end
$var wire 1 F FlushE $end
$var wire 1 G FlushD $end
$var wire 1 H BranchE $end
$var wire 32 I ALU_ResultW [31:0] $end
$var wire 32 J ALU_ResultM [31:0] $end
$var wire 1 K ALUSrcE $end
$var wire 3 L ALUControlE [2:0] $end
$scope module Decode $end
$var wire 3 M ALUControlE [2:0] $end
$var wire 1 K ALUSrcE $end
$var wire 1 H BranchE $end
$var wire 32 N Imm_Ext_E [31:0] $end
$var wire 1 A JalrE $end
$var wire 1 @ JumpE $end
$var wire 1 ? MemWriteE $end
$var wire 32 O PCE [31:0] $end
$var wire 32 P PCPlus4E [31:0] $end
$var wire 32 Q RD1_E [31:0] $end
$var wire 32 R RD2_E [31:0] $end
$var wire 5 S RD_E [4:0] $end
$var wire 5 T RS1_E [4:0] $end
$var wire 5 U RS2_E [4:0] $end
$var wire 1 - RegWriteE $end
$var wire 2 V ResultSrcE [1:0] $end
$var wire 1 ! clk $end
$var wire 3 W funct3_E [2:0] $end
$var wire 1 " rst $end
$var wire 32 X ResultW [31:0] $end
$var wire 2 Y ResultSrcD [1:0] $end
$var wire 1 + RegWriteW $end
$var wire 1 Z RegWriteD $end
$var wire 5 [ RDW [4:0] $end
$var wire 32 \ RD2_D [31:0] $end
$var wire 32 ] RD1_D [31:0] $end
$var wire 32 ^ PCPlus4D [31:0] $end
$var wire 32 _ PCD [31:0] $end
$var wire 1 ` MemWriteD $end
$var wire 1 a JumpD $end
$var wire 1 b JalrD $end
$var wire 32 c InstrD [31:0] $end
$var wire 32 d Imm_Ext_D [31:0] $end
$var wire 2 e ImmSrcD [1:0] $end
$var wire 1 F FlushE $end
$var wire 1 f BranchD $end
$var wire 1 g ALUSrcD $end
$var wire 3 h ALUControlD [2:0] $end
$var reg 3 i ALUControlD_r [2:0] $end
$var reg 1 K ALUSrcD_r $end
$var reg 1 H BranchD_r $end
$var reg 32 j Imm_Ext_D_r [31:0] $end
$var reg 1 A JalrD_r $end
$var reg 1 @ JumpD_r $end
$var reg 1 k MemWriteD_r $end
$var reg 32 l PCD_r [31:0] $end
$var reg 32 m PCPlus4D_r [31:0] $end
$var reg 32 n RD1_D_r [31:0] $end
$var reg 32 o RD2_D_r [31:0] $end
$var reg 5 p RD_D_r [4:0] $end
$var reg 5 q RS1_D_r [4:0] $end
$var reg 5 r RS2_D_r [4:0] $end
$var reg 1 s RegWriteD_r $end
$var reg 2 t ResultSrcD_r [1:0] $end
$var reg 3 u funct3_D_r [2:0] $end
$scope module control $end
$var wire 7 v Op [6:0] $end
$var wire 3 w funct3 [2:0] $end
$var wire 7 x funct7 [6:0] $end
$var wire 2 y ResultSrc [1:0] $end
$var wire 1 Z RegWrite $end
$var wire 1 ` MemWrite $end
$var wire 1 a Jump $end
$var wire 1 b Jalr $end
$var wire 2 z ImmSrc [1:0] $end
$var wire 1 f Branch $end
$var wire 1 g ALUSrc $end
$var wire 2 { ALUOp [1:0] $end
$var wire 3 | ALUControl [2:0] $end
$scope module ALU_Decoder $end
$var wire 3 } funct3 [2:0] $end
$var wire 7 ~ funct7 [6:0] $end
$var wire 7 !" op [6:0] $end
$var wire 2 "" ALUOp [1:0] $end
$var wire 3 #" ALUControl [2:0] $end
$upscope $end
$scope module Main_Decoder $end
$var wire 7 $" Op [6:0] $end
$var wire 2 %" ResultSrc [1:0] $end
$var wire 1 Z RegWrite $end
$var wire 1 ` MemWrite $end
$var wire 1 a Jump $end
$var wire 1 b Jalr $end
$var wire 2 &" ImmSrc [1:0] $end
$var wire 1 f Branch $end
$var wire 1 g ALUSrc $end
$var wire 2 '" ALUOp [1:0] $end
$upscope $end
$upscope $end
$scope module extension $end
$var wire 2 (" ImmSrc [1:0] $end
$var wire 32 )" In [31:0] $end
$var wire 32 *" Imm_Ext [31:0] $end
$upscope $end
$scope module rf $end
$var wire 5 +" A1 [4:0] $end
$var wire 5 ," A2 [4:0] $end
$var wire 1 ! clk $end
$var wire 1 " rst $end
$var wire 1 + WE3 $end
$var wire 32 -" WD3 [31:0] $end
$var wire 32 ." RD2 [31:0] $end
$var wire 32 /" RD1 [31:0] $end
$var wire 5 0" A3 [4:0] $end
$upscope $end
$upscope $end
$scope module Execute $end
$var wire 3 1" ALUControlE [2:0] $end
$var wire 1 K ALUSrcE $end
$var wire 1 H BranchE $end
$var wire 32 2" Imm_Ext_E [31:0] $end
$var wire 1 A JalrE $end
$var wire 1 @ JumpE $end
$var wire 1 ? MemWriteE $end
$var wire 1 > MemWriteM $end
$var wire 32 3" PCE [31:0] $end
$var wire 32 4" PCPlus4E [31:0] $end
$var wire 32 5" PCPlus4M [31:0] $end
$var wire 1 7 PCSrcE $end
$var wire 32 6" RD1_E [31:0] $end
$var wire 32 7" RD2_E [31:0] $end
$var wire 5 8" RD_E [4:0] $end
$var wire 5 9" RD_M [4:0] $end
$var wire 1 - RegWriteE $end
$var wire 1 , RegWriteM $end
$var wire 2 :" ResultSrcE [1:0] $end
$var wire 2 ;" ResultSrcM [1:0] $end
$var wire 32 <" WriteDataM [31:0] $end
$var wire 1 ! clk $end
$var wire 3 =" funct3_E [2:0] $end
$var wire 1 " rst $end
$var wire 1 >" ZeroE $end
$var wire 32 ?" Src_B_interim [31:0] $end
$var wire 32 @" Src_B [31:0] $end
$var wire 32 A" Src_A [31:0] $end
$var wire 32 B" ResultW [31:0] $end
$var wire 32 C" ResultE [31:0] $end
$var wire 32 D" PCTargetE [31:0] $end
$var wire 32 E" PCBranchTargetE [31:0] $end
$var wire 1 F" OverFlowE $end
$var wire 1 G" NegativeE $end
$var wire 2 H" ForwardB_E [1:0] $end
$var wire 2 I" ForwardA_E [1:0] $end
$var wire 1 J" CarryE $end
$var wire 1 K" BranchTakenE $end
$var wire 32 L" ALU_ResultM [31:0] $end
$var reg 1 M" MemWriteE_r $end
$var reg 32 N" PCPlus4E_r [31:0] $end
$var reg 32 O" RD2_E_r [31:0] $end
$var reg 5 P" RD_E_r [4:0] $end
$var reg 1 , RegWriteE_r $end
$var reg 32 Q" ResultE_r [31:0] $end
$var reg 2 R" ResultSrcE_r [1:0] $end
$scope module alu $end
$var wire 3 S" ALUControl [2:0] $end
$var wire 1 J" Carry $end
$var wire 1 F" OverFlow $end
$var wire 1 >" Zero $end
$var wire 32 T" Sum [31:0] $end
$var wire 32 U" Result [31:0] $end
$var wire 1 G" Negative $end
$var wire 1 V" Cout $end
$var wire 32 W" B [31:0] $end
$var wire 32 X" A [31:0] $end
$upscope $end
$scope module alu_src_mux $end
$var wire 32 Y" b [31:0] $end
$var wire 1 K s $end
$var wire 32 Z" c [31:0] $end
$var wire 32 [" a [31:0] $end
$upscope $end
$scope module branch_adder $end
$var wire 32 \" a [31:0] $end
$var wire 32 ]" b [31:0] $end
$var wire 32 ^" c [31:0] $end
$upscope $end
$scope module srca_mux $end
$var wire 32 _" a [31:0] $end
$var wire 32 `" c [31:0] $end
$var wire 2 a" s [1:0] $end
$var wire 32 b" d [31:0] $end
$var wire 32 c" b [31:0] $end
$upscope $end
$scope module srcb_mux $end
$var wire 32 d" a [31:0] $end
$var wire 32 e" c [31:0] $end
$var wire 2 f" s [1:0] $end
$var wire 32 g" d [31:0] $end
$var wire 32 h" b [31:0] $end
$upscope $end
$upscope $end
$scope module Fetch $end
$var wire 1 i" JalrE $end
$var wire 1 7 PCSrcE $end
$var wire 32 j" PCTargetE [31:0] $end
$var wire 1 ! clk $end
$var wire 1 " rst $end
$var wire 1 % StallF $end
$var wire 1 & StallD $end
$var wire 32 k" PC_Next [31:0] $end
$var wire 32 l" PC_F [31:0] $end
$var wire 32 m" PCPlus4F [31:0] $end
$var wire 32 n" PCPlus4D [31:0] $end
$var wire 32 o" PCF [31:0] $end
$var wire 32 p" PCD [31:0] $end
$var wire 32 q" InstrF [31:0] $end
$var wire 32 r" InstrD [31:0] $end
$var wire 1 G FlushD $end
$var reg 32 s" InstrF_reg [31:0] $end
$var reg 32 t" PCF_reg [31:0] $end
$var reg 32 u" PCPlus4F_reg [31:0] $end
$scope module IMEM $end
$var wire 1 " rst $end
$var wire 32 v" RD [31:0] $end
$var wire 32 w" A [31:0] $end
$upscope $end
$scope module PC_MUX $end
$var wire 32 x" b [31:0] $end
$var wire 1 7 s $end
$var wire 32 y" c [31:0] $end
$var wire 32 z" a [31:0] $end
$upscope $end
$scope module PC_adder $end
$var wire 32 {" b [31:0] $end
$var wire 32 |" c [31:0] $end
$var wire 32 }" a [31:0] $end
$upscope $end
$scope module Program_Counter $end
$var wire 1 ! clk $end
$var wire 1 " rst $end
$var wire 32 ~" PC_Next [31:0] $end
$var reg 32 !# PC [31:0] $end
$upscope $end
$scope module STALL_MUX $end
$var wire 32 "# a [31:0] $end
$var wire 32 ## b [31:0] $end
$var wire 1 % s $end
$var wire 32 $# c [31:0] $end
$upscope $end
$upscope $end
$scope module Forwarding_block $end
$var wire 1 G FlushD $end
$var wire 1 F FlushE $end
$var wire 1 %# LoadUseHazard $end
$var wire 1 7 PCSrcE $end
$var wire 5 &# RD_E [4:0] $end
$var wire 5 '# RD_M [4:0] $end
$var wire 1 , RegWriteM $end
$var wire 2 (# ResultSrcE [1:0] $end
$var wire 5 )# Rs1_D [4:0] $end
$var wire 5 *# Rs1_E [4:0] $end
$var wire 5 +# Rs2_D [4:0] $end
$var wire 5 ,# Rs2_E [4:0] $end
$var wire 1 & StallD $end
$var wire 1 % StallF $end
$var wire 1 " rst $end
$var wire 1 + RegWriteW $end
$var wire 5 -# RD_W [4:0] $end
$var wire 2 .# ForwardBE [1:0] $end
$var wire 2 /# ForwardAE [1:0] $end
$upscope $end
$scope module Memory $end
$var wire 32 0# ALU_ResultM [31:0] $end
$var wire 32 1# ALU_ResultW [31:0] $end
$var wire 1 > MemWriteM $end
$var wire 32 2# PCPlus4M [31:0] $end
$var wire 32 3# PCPlus4W [31:0] $end
$var wire 5 4# RD_M [4:0] $end
$var wire 5 5# RD_W [4:0] $end
$var wire 32 6# ReadDataW [31:0] $end
$var wire 1 , RegWriteM $end
$var wire 1 + RegWriteW $end
$var wire 2 7# ResultSrcM [1:0] $end
$var wire 2 8# ResultSrcW [1:0] $end
$var wire 32 9# WriteDataM [31:0] $end
$var wire 1 ! clk $end
$var wire 1 " rst $end
$var wire 32 :# ReadDataM [31:0] $end
$var reg 32 ;# ALU_ResultM_r [31:0] $end
$var reg 32 <# PCPlus4M_r [31:0] $end
$var reg 5 =# RD_M_r [4:0] $end
$var reg 32 ># ReadDataM_r [31:0] $end
$var reg 1 + RegWriteM_r $end
$var reg 2 ?# ResultSrcM_r [1:0] $end
$scope module dmem $end
$var wire 32 @# A [31:0] $end
$var wire 32 A# WD [31:0] $end
$var wire 1 > WE $end
$var wire 1 ! clk $end
$var wire 1 " rst $end
$var wire 32 B# RD [31:0] $end
$upscope $end
$upscope $end
$scope module WriteBack $end
$var wire 32 C# ALU_ResultW [31:0] $end
$var wire 32 D# PCPlus4W [31:0] $end
$var wire 32 E# ReadDataW [31:0] $end
$var wire 2 F# ResultSrcW [1:0] $end
$var wire 1 ! clk $end
$var wire 1 " rst $end
$var wire 32 G# ResultW [31:0] $end
$scope module result_mux $end
$var wire 32 H# a [31:0] $end
$var wire 32 I# b [31:0] $end
$var wire 32 J# c [31:0] $end
$var wire 2 K# s [1:0] $end
$var wire 32 L# d [31:0] $end
$upscope $end
$upscope $end
$upscope $end
$upscope $end
$enddefinitions $end
$comment Show the parameter values. $end
$dumpall
$end
#0
$dumpvars
b0 L#
b0 K#
b0 J#
b0 I#
b0 H#
b0 G#
b0 F#
b0 E#
b0 D#
b0 C#
b0 B#
b0 A#
b0 @#
b0 ?#
b0 >#
b0 =#
b0 <#
b0 ;#
b0 :#
b0 9#
b0 8#
b0 7#
b0 6#
b0 5#
b0 4#
b0 3#
b0 2#
b0 1#
b0 0#
b0 /#
b0 .#
b0 -#
b0 ,#
b0 +#
b0 *#
b0 )#
b0 (#
b0 '#
b0 &#
0%#
bx $#
bx ##
bx "#
bx !#
bx ~"
bx }"
bx |"
b100 {"
bx z"
bx y"
b0 x"
bx w"
b0 v"
b0 u"
b0 t"
b0 s"
b0 r"
b0 q"
b0 p"
bx o"
b0 n"
bx m"
bx l"
bx k"
b0 j"
zi"
b0 h"
b0 g"
b0 f"
b0 e"
b0 d"
b0 c"
b0 b"
b0 a"
b0 `"
b0 _"
b0 ^"
b0 ]"
b0 \"
b0 ["
b0 Z"
b0 Y"
b0 X"
b0 W"
0V"
b0 U"
b0 T"
b0 S"
b0 R"
b0 Q"
b0 P"
b0 O"
b0 N"
0M"
b0 L"
1K"
0J"
b0 I"
b0 H"
0G"
0F"
b0 E"
b0 D"
b0 C"
b0 B"
b0 A"
b0 @"
b0 ?"
1>"
b0 ="
b0 <"
b0 ;"
b0 :"
b0 9"
b0 8"
b0 7"
b0 6"
b0 5"
b0 4"
b0 3"
b0 2"
b0 1"
b0 0"
b0 /"
b0 ."
b0 -"
b0 ,"
b0 +"
b0 *"
b0 )"
b0 ("
b0 '"
b0 &"
b0 %"
b0 $"
b0 #"
b0 ""
b0 !"
b0 ~
b0 }
b0 |
b0 {
b0 z
b0 y
b0 x
b0 w
b0 v
b0 u
b0 t
0s
b0 r
b0 q
b0 p
b0 o
b0 n
b0 m
b0 l
0k
b0 j
b0 i
b0 h
0g
0f
b0 e
b0 d
b0 c
0b
0a
0`
b0 _
b0 ^
b0 ]
b0 \
b0 [
0Z
b0 Y
b0 X
b0 W
b0 V
b0 U
b0 T
b0 S
b0 R
b0 Q
b0 P
b0 O
b0 N
b0 M
b0 L
0K
b0 J
b0 I
0H
0G
0F
b0 E
b0 D
b0 C
b0 B
0A
0@
0?
0>
b0 =
b0 <
b0 ;
b0 :
b0 9
b0 8
07
b0 6
b0 5
b0 4
b0 3
b0 2
b0 1
b0 0
b0 /
b0 .
0-
0,
0+
b0 *
b0 )
b0 (
b0 '
0&
0%
b0 $
b0 #
0"
1!
$end
#50
0!
#100
b100 l"
b100 ~"
b100 $#
b100 k"
b100 y"
b100 "#
b100 m"
b100 z"
b100 |"
b0 o"
b0 w"
b0 }"
b0 !#
b0 ##
1!
#150
0!
#200
b10100000000000010010011 q"
b10100000000000010010011 v"
1"
1!
#250
0!
#300
1Z
1g
b10 {
b10 ""
b10 '"
b101 d
b101 *"
bx \
bx ."
b1000 l"
b1000 ~"
b1000 $#
b101000000000000100010011 q"
b101000000000000100010011 v"
b101 ,"
b10011 v
b10011 !"
b10011 $"
b101 +#
b1000 k"
b1000 y"
b1000 "#
b100 ;
b100 ^
b100 n"
b10100000000000010010011 B
b10100000000000010010011 c
b10100000000000010010011 )"
b10100000000000010010011 r"
b1000 m"
b1000 z"
b1000 |"
b100 o"
b100 w"
b100 }"
b100 !#
b100 ##
b100 u"
b10100000000000010010011 s"
1!
#350
0!
#400
0K"
0>"
b101 C"
b101 U"
b101 T"
b1010 d
b1010 *"
b1100 l"
b1100 ~"
b1100 $#
b1000001000000110110011 q"
b1000001000000110110011 v"
b101 @"
b101 W"
b101 Z"
b1010 ,"
b1010 +#
b1100 k"
b1100 y"
b1100 "#
b101 6
b101 D"
b101 j"
b101 x"
bx ?"
bx ["
bx g"
b1000 ;
b1000 ^
b1000 n"
b100 =
b100 _
b100 p"
b101000000000000100010011 B
b101000000000000100010011 c
b101000000000000100010011 )"
b101000000000000100010011 r"
b1100 m"
b1100 z"
b1100 |"
b1000 o"
b1000 w"
b1000 }"
b1000 !#
b1000 ##
b101 /
b101 U
b101 r
b101 ,#
b100 :
b100 P
b100 4"
b100 m
b1 2
b1 S
b1 p
b1 8"
b1 &#
b101 E"
b101 ^"
b101 C
b101 N
b101 j
b101 2"
b101 Y"
b101 ]"
bx 4
bx R
bx o
bx 7"
bx d"
1K
1-
1s
b1000 u"
b100 t"
b101000000000000100010011 s"
1!
#450
0!
#500
1Z
0g
b1010 C"
b1010 U"
b10 d
b10 *"
bx ]
bx /"
b10000 l"
b10000 ~"
b10000 $#
b1100000010000000100011 q"
b1100000010000000100011 v"
b10 ,"
b1 +"
b110011 v
b110011 !"
b110011 $"
b10 +#
b1 )#
b1010 T"
b10000 k"
b10000 y"
b10000 "#
b1100 ;
b1100 ^
b1100 n"
b1000 =
b1000 _
b1000 p"
b1000001000000110110011 B
b1000001000000110110011 c
b1000001000000110110011 )"
b1000001000000110110011 r"
b1010 @"
b1010 W"
b1010 Z"
b1110 6
b1110 D"
b1110 j"
b1110 x"
bx :#
bx B#
b10000 m"
b10000 z"
b10000 |"
b1100 o"
b1100 w"
b1100 }"
b1100 !#
b1100 ##
b1100 u"
b1000 t"
b1000001000000110110011 s"
b1010 /
b1010 U
b1010 r
b1010 ,#
b1000 :
b1000 P
b1000 4"
b1000 m
b100 <
b100 O
b100 l
b100 3"
b100 \"
b10 2
b10 S
b10 p
b10 8"
b10 &#
b1110 E"
b1110 ^"
b1010 C
b1010 N
b1010 j
b1010 2"
b1010 Y"
b1010 ]"
b101 J
b101 L"
b101 Q"
b101 `"
b101 e"
b101 0#
b101 @#
bx $
bx <"
bx 9#
bx A#
bx O"
b100 9
b100 5"
b100 2#
b100 N"
b1 1
b1 9"
b1 P"
b1 '#
b1 4#
1,
1!
#550
0!
#600
0Z
0K"
1g
b1 E
b1 I"
b1 a"
b1 /#
0F"
0G"
0>"
b1010 ?"
b1010 ["
b1010 g"
b1111 C"
b1111 U"
b0 {
b0 ""
b0 '"
b10 D
b10 H"
b10 f"
b10 .#
b0 d
b0 *"
b0 ]
b0 /"
b1 e
b1 z
b1 &"
b1 ("
1`
b10100 l"
b10100 ~"
b10100 $#
b10001000000011 q"
b10001000000011 v"
b1111 T"
b11 ,"
b0 +"
b10 w
b10 }
b100011 v
b100011 !"
b100011 $"
b11 +#
b0 )#
b10100 k"
b10100 y"
b10100 "#
b101 '
b101 X
b101 -"
b101 B"
b101 c"
b101 h"
b101 G#
b101 L#
b1010 @"
b1010 W"
b1010 Z"
b1010 6
b1010 D"
b1010 j"
b1010 x"
b101 A"
b101 X"
b101 b"
b10000 ;
b10000 ^
b10000 n"
b1100 =
b1100 _
b1100 p"
b1100000010000000100011 B
b1100000010000000100011 c
b1100000010000000100011 )"
b1100000010000000100011 r"
b10100 m"
b10100 z"
b10100 |"
b10000 o"
b10000 w"
b10000 }"
b10000 !#
b10000 ##
bx .
bx 6#
bx >#
bx E#
bx I#
b101 I
b101 1#
b101 ;#
b101 C#
b101 H#
b100 8
b100 3#
b100 <#
b100 D#
b100 J#
b1 3
b1 [
b1 0"
b1 -#
b1 5#
b1 =#
1+
b1010 J
b1010 L"
b1010 Q"
b1010 `"
b1010 e"
b1010 0#
b1010 @#
b1000 9
b1000 5"
b1000 2#
b1000 N"
b10 1
b10 9"
b10 P"
b10 '#
b10 4#
b10 /
b10 U
b10 r
b10 ,#
b1 0
b1 T
b1 q
b1 *#
b1100 :
b1100 P
b1100 4"
b1100 m
b1000 <
b1000 O
b1000 l
b1000 3"
b1000 \"
b11 2
b11 S
b11 p
b11 8"
b11 &#
b1010 E"
b1010 ^"
b10 C
b10 N
b10 j
b10 2"
b10 Y"
b10 ]"
bx 5
bx Q
bx n
bx 6"
bx _"
0K
b10000 u"
b1100 t"
b1100000010000000100011 s"
1!
#650
0!
#700
1>"
1Z
b0 C"
b0 U"
b0 E
b0 I"
b0 a"
b0 /#
b0 \
b0 ."
b0 e
b0 z
b0 &"
b0 ("
0`
b1 Y
b1 y
b1 %"
b0 T"
b1111 ?"
b1111 ["
b1111 g"
b0 A"
b0 X"
b0 b"
b11000 l"
b11000 ~"
b11000 $#
b100100000001010110011 q"
b100100000001010110011 v"
b0 ,"
b11 v
b11 !"
b11 $"
b0 +#
b0 @"
b0 W"
b0 Z"
b11000 k"
b11000 y"
b11000 "#
b10100 ;
b10100 ^
b10100 n"
b10000 =
b10000 _
b10000 p"
b10001000000011 B
b10001000000011 c
b10001000000011 )"
b10001000000011 r"
b1100 6
b1100 D"
b1100 j"
b1100 x"
b1010 '
b1010 X
b1010 -"
b1010 B"
b1010 c"
b1010 h"
b1010 G#
b1010 L#
b11000 m"
b11000 z"
b11000 |"
b10100 o"
b10100 w"
b10100 }"
b10100 !#
b10100 ##
b10100 u"
b10000 t"
b10001000000011 s"
b11 /
b11 U
b11 r
b11 ,#
b0 0
b0 T
b0 q
b0 *#
b10000 :
b10000 P
b10000 4"
b10000 m
b1100 <
b1100 O
b1100 l
b1100 3"
b1100 \"
b0 2
b0 S
b0 p
b0 8"
b0 &#
b1100 E"
b1100 ^"
b0 C
b0 N
b0 j
b0 2"
b0 Y"
b0 ]"
b0 5
b0 Q
b0 n
b0 6"
b0 _"
b10 #
b10 W
b10 u
b10 ="
1?
1k
1K
0-
0s
b1111 J
b1111 L"
b1111 Q"
b1111 `"
b1111 e"
b1111 0#
b1111 @#
b1010 $
b1010 <"
b1010 9#
b1010 A#
b1010 O"
b1100 9
b1100 5"
b1100 2#
b1100 N"
b11 1
b11 9"
b11 P"
b11 '#
b11 4#
b1010 I
b1010 1#
b1010 ;#
b1010 C#
b1010 H#
b1000 8
b1000 3#
b1000 <#
b1000 D#
b1000 J#
b10 3
b10 [
b10 0"
b10 -#
b10 5#
b10 =#
1!
#750
0!
#800
0g
1F
b0 D
b0 H"
b0 f"
b0 .#
b10 {
b10 ""
b10 '"
1%
1&
1%#
b0 ?"
b0 ["
b0 g"
b0 E
b0 I"
b0 a"
b0 /#
b1 d
b1 *"
b101 \
b101 ."
bx ]
bx /"
b0 Y
b0 y
b0 %"
b11000 l"
b11000 ~"
b11000 $#
b10100101000010001100011 q"
b10100101000010001100011 v"
b1 ,"
b100 +"
b0 w
b0 }
b110011 v
b110011 !"
b110011 $"
b1 +#
b100 )#
b11100 k"
b11100 y"
b11100 "#
b1111 '
b1111 X
b1111 -"
b1111 B"
b1111 c"
b1111 h"
b1111 G#
b1111 L#
b0 :#
b0 B#
b10000 6
b10000 D"
b10000 j"
b10000 x"
b11000 ;
b11000 ^
b11000 n"
b10100 =
b10100 _
b10100 p"
b100100000001010110011 B
b100100000001010110011 c
b100100000001010110011 )"
b100100000001010110011 r"
b11100 m"
b11100 z"
b11100 |"
b11000 o"
b11000 w"
b11000 }"
b11000 !#
b11000 ##
b1111 I
b1111 1#
b1111 ;#
b1111 C#
b1111 H#
b1100 8
b1100 3#
b1100 <#
b1100 D#
b1100 J#
b11 3
b11 [
b11 0"
b11 -#
b11 5#
b11 =#
b0 J
b0 L"
b0 Q"
b0 `"
b0 e"
b0 0#
b0 @#
b1111 $
b1111 <"
b1111 9#
b1111 A#
b1111 O"
b10000 9
b10000 5"
b10000 2#
b10000 N"
b0 1
b0 9"
b0 P"
b0 '#
b0 4#
1>
1M"
0,
b0 /
b0 U
b0 r
b0 ,#
b10100 :
b10100 P
b10100 4"
b10100 m
b10000 E"
b10000 ^"
b10000 <
b10000 O
b10000 l
b10000 3"
b10000 \"
b100 2
b100 S
b100 p
b100 8"
b100 &#
b0 4
b0 R
b0 o
b0 7"
b0 d"
b1 *
b1 V
b1 t
b1 :"
b1 (#
0?
0k
1-
1s
b11000 u"
b10100 t"
b100100000001010110011 s"
1!
#850
0!
#900
b11100 l"
b11100 ~"
b11100 $#
0F
0%
0&
0%#
b1111 :#
b1111 B#
b0 6
b0 D"
b0 j"
b0 x"
1K"
b0 '
b0 X
b0 -"
b0 B"
b0 c"
b0 h"
b0 G#
b0 L#
b0 :
b0 P
b0 4"
b0 m
b0 E"
b0 ^"
b0 <
b0 O
b0 l
b0 3"
b0 \"
b0 2
b0 S
b0 p
b0 8"
b0 &#
b0 #
b0 W
b0 u
b0 ="
b0 *
b0 V
b0 t
b0 :"
b0 (#
0K
0-
0s
b0 $
b0 <"
b0 9#
b0 A#
b0 O"
b10100 9
b10100 5"
b10100 2#
b10100 N"
b100 1
b100 9"
b100 P"
b100 '#
b100 4#
b1 )
b1 ;"
b1 7#
b1 R"
0>
0M"
1,
b0 .
b0 6#
b0 >#
b0 E#
b0 I#
b0 I
b0 1#
b0 ;#
b0 C#
b0 H#
b10000 8
b10000 3#
b10000 <#
b10000 D#
b10000 J#
b0 3
b0 [
b0 0"
b0 -#
b0 5#
b0 =#
0+
1!
#950
0!
#1000
0Z
0K"
b1 h
b1 |
b1 #"
b1 E
b1 I"
b1 a"
b1 /#
0F"
0G"
0>"
b10100 C"
b10100 U"
b10 e
b10 z
b10 &"
b10 ("
b1 {
b1 ""
b1 '"
b1000 d
b1000 *"
bx \
bx ."
1f
b100000 l"
b100000 ~"
b100000 $#
b110001100000000001100010011 q"
b110001100000000001100010011 v"
b101 @"
b101 W"
b101 Z"
b10100 T"
b101 ,"
b101 +"
b1100011 v
b1100011 !"
b1100011 $"
b101 +#
b101 )#
b100000 k"
b100000 y"
b100000 "#
b1111 '
b1111 X
b1111 -"
b1111 B"
b1111 c"
b1111 h"
b1111 G#
b1111 L#
b10101 6
b10101 D"
b10101 j"
b10101 x"
b101 ?"
b101 ["
b101 g"
b1111 A"
b1111 X"
b1111 b"
b11100 ;
b11100 ^
b11100 n"
b11000 =
b11000 _
b11000 p"
b10100101000010001100011 B
b10100101000010001100011 c
b10100101000010001100011 )"
b10100101000010001100011 r"
b100000 m"
b100000 z"
b100000 |"
b11100 o"
b11100 w"
b11100 }"
b11100 !#
b11100 ##
b1111 .
b1111 6#
b1111 >#
b1111 E#
b1111 I#
b10100 8
b10100 3#
b10100 <#
b10100 D#
b10100 J#
b100 3
b100 [
b100 0"
b100 -#
b100 5#
b100 =#
b1 (
b1 8#
b1 ?#
b1 F#
b1 K#
1+
b0 9
b0 5"
b0 2#
b0 N"
b0 1
b0 9"
b0 P"
b0 '#
b0 4#
b0 )
b0 ;"
b0 7#
b0 R"
0,
b1 /
b1 U
b1 r
b1 ,#
b100 0
b100 T
b100 q
b100 *#
b11000 :
b11000 P
b11000 4"
b11000 m
b10100 <
b10100 O
b10100 l
b10100 3"
b10100 \"
b101 2
b101 S
b101 p
b101 8"
b101 &#
b10101 E"
b10101 ^"
b1 C
b1 N
b1 j
b1 2"
b1 Y"
b1 ]"
b101 4
b101 R
b101 o
b101 7"
b101 d"
bx 5
bx Q
bx n
bx 6"
bx _"
1-
1s
b11100 u"
b11000 t"
b10100101000010001100011 s"
1!
#1050
0!
